{
    "tour": "^(# +)?Т[Уу][Рр] ?№? ?([0-9IVXLCDM]*)([\\.:])?$",
    "tourrev": "^([0-9IVXLCDM]+) [Тт][Уу][Рр]([\\.:])?$",
    "question": "П[Ыы][Тт][Аа][Нн][Ьь]?[Нн][Ее] ?[№N]?([0-9 ]*) ?([\\.:]|\n|\r\n|$)",
    "handout": "Р[Аа][Зз][Дд][Аа][Тт]([Аа][Чч][Нн]|[Кк][Аа][Вв])[Ыы][  ][Мм][Аа][Тт][Ээ][Рр][Ыы][Яя][Лл][\\.:]",
    "answer": "А[Дд][Кк][Аа][Зз][Ыы]? ?[№N]?([0-9]+)? ?[\\.:]",
    "zachet": "З[Аа][Лл][Іі][Кк] ?[\\.:]",
    "nezachet": "Н[Ее][Зз][Аа][Лл][Іі][Кк] ?[\\.:]",
    "comment": "К[Аа][Мм]([Ее][Нн][Тт]([Аа][Рр]([Ыы][Йй])?|\\.)|\\.) ?[№N]?([0-9]+)? ?[\\.:]",
    "author": "А[Ўў][Тт][Аа][Рр](\\(?[Ыы]?\\)?|[Кк][АаИи])? ?[\\.:]",
    "source": "К[Рр][Ыы][Нн][Іі][Цц][АаЫы] ?[\\.:]",
    "editor": "[Рр][Ээ][Дд][Аа][Кк][Тт][Аа][Рр]([Ыы])?( ?[\\.:]| [\\-–—]+ )",
    "date": "Д[Аа][Тт][Аа] ?[\\.:]",
    "date2": "(^|\\s)студзеня|лютага|сакавіка|красавіка|мая|чэрвеня|ліпеня|жніўня|верасня|кастрычніка|лістапада|снежня(\\s|$)",
    "number": "^[0-9]+[\\.\\)] *"
}